Convert long/tidy data frame to wide format with NAs removed — long_to_wide_converter • statsExpressions
…
    Examples

# for reproducibility
library(statsExpressions)
set.seed(123)

# repeated measures design
long_to_wide_converter(
  data       = bugs_long,
  x          = condition,
  y          = desire,
  subject.id = subject,
  paired     = TRUE
)
#> # A tibble: 88 × 5
#>    .rowid  HDHF  HDLF  LDHF  LDLF
#>     <int> <dbl> <dbl> <dbl> <dbl>
#>  1      1  10     9     6     6  
#>  2      3  10    10    10     5  
#>  3      4   9     6     9     6  
#>  4      5   8.5   5.5   6.5   3  
#>  5      6   3     7.5   0.5   2  
#>  6      7  10    10    10    10  
#>  7      8  10     9    10    10  
#>  8      9  10     6     9.5   9.5
#>  9     11   0     0     2.5   0  
#> 10     12  10     8.5   7.5   9.5
#> # … with 78 more rows

# independent measures design
long_to_wide_converter(
  data   = mtcars,
  x      = cyl,
  y      = wt,
  paired = FALSE
)
#> # A tibble: 32 × 3
#>    .rowid cyl      wt
#>     <int> <fct> <dbl>
#>  1      1 4      2.32
#>  2      2 4      3.19
#>  3      3 4      3.15
#>  4      4 4      2.2 
#>  5      5 4      1.62
#>  6      6 4      1.84
#>  7      7 4      2.46
#>  8      8 4      1.94
#>  9      9 4      2.14
#> 10     10 4      1.51
#> # … with 22 more rows
…
