Dataframe outputs • statsExpressions
…
# ----------------------- Bayes Factor ---------------------------------------

# for reproducibility
set.seed(123)
expr_anova_bayes(
  data = bugs_long,
  x = condition,
  y = desire,
  paired = TRUE,
  subject.id = subject,
  output = "dataframe"
)
#> # A tibble: 96 x 19
#>    term           estimate conf.low conf.high    pd rope.percentage
#>    <chr>             <dbl>    <dbl>     <dbl> <dbl>           <dbl>
#>  1 mu                6.88     6.43      7.33  1              0     
#>  2 condition-HDHF    0.912    0.554     1.24  1              0     
#>  3 condition-HDLF   -0.188   -0.548     0.150 0.862          0.737 
#>  4 condition-LDHF    0.455    0.124     0.811 0.995          0.113 
#>  5 condition-LDLF   -1.17    -1.52     -0.823 1              0     
#>  6 rowid-1           0.688   -1.11      2.34  0.779          0.206 
#>  7 rowid-3           1.48    -0.338     3.15  0.952          0.0359
#>  8 rowid-4           0.491   -1.25      2.24  0.709          0.246 
#>  9 rowid-5          -0.814   -2.59      0.930 0.816          0.176 
#> 10 rowid-6          -2.87    -4.68     -1.10  1              0     
#>    prior.distribution prior.location prior.scale effect component          bf10
#>    <chr>                       <dbl>       <dbl> <chr>  <chr>             <dbl>
#>  1 cauchy                          0       0.707 fixed  extra       1372773375.
#>  2 cauchy                          0       0.707 fixed  conditional 1372773375.
#>  3 cauchy                          0       0.707 fixed  conditional 1372773375.
#>  4 cauchy                          0       0.707 fixed  conditional 1372773375.
#>  5 cauchy                          0       0.707 fixed  conditional 1372773375.
#>  6 cauchy                          0       1     random conditional 1372773375.
#>  7 cauchy                          0       1     random conditional 1372773375.
#>  8 cauchy                          0       1     random conditional 1372773375.
#>  9 cauchy                          0       1     random conditional 1372773375.
#> 10 cauchy                          0       1     random conditional 1372773375.
#>    log_e_bf10    r2 std.dev ci.width r2.conf.low r2.conf.high r2.component
#>         <dbl> <dbl>   <dbl>    <dbl>       <dbl>        <dbl> <chr>       
#>  1       21.0 0.529  0.0330       95       0.460        0.586 conditional 
#>  2       21.0 0.529  0.0330       95       0.460        0.586 conditional 
#>  3       21.0 0.529  0.0330       95       0.460        0.586 conditional 
#>  4       21.0 0.529  0.0330       95       0.460        0.586 conditional 
#>  5       21.0 0.529  0.0330       95       0.460        0.586 conditional 
#>  6       21.0 0.529  0.0330       95       0.460        0.586 conditional 
#>  7       21.0 0.529  0.0330       95       0.460        0.586 conditional 
#>  8       21.0 0.529  0.0330       95       0.460        0.586 conditional 
#>  9       21.0 0.529  0.0330       95       0.460        0.586 conditional 
#> 10       21.0 0.529  0.0330       95       0.460        0.586 conditional 
#> # ... with 86 more rows
…
