Expression and dataframe for one-way ANOVA — expr_oneway_anova • statsExpressions
…
# within-subjects design
# needs `BayesFactor 0.9.12-4.3` or above
if (utils::packageVersion("BayesFactor") >= package_version("0.9.12-4.3")) {
  expr_oneway_anova(
    data = iris_long,
    x = condition,
    y = value,
    subject.id = id,
    paired = TRUE,
    type = "bayes",
    output = "dataframe"
  )
}

#> # A tibble: 158 x 19
#>    term                   estimate ci.width conf.low conf.high    pd
#>    <chr>                     <dbl>    <dbl>    <dbl>     <dbl> <dbl>
#>  1 mu                        3.46      0.95    3.35     3.60   1    
#>  2 condition-Petal.Length    0.293     0.95    0.176    0.405  1    
#>  3 condition-Petal.Width    -2.26      0.95   -2.38    -2.15   1    
#>  4 condition-Sepal.Length    2.37      0.95    2.26     2.48   1    
#>  5 condition-Sepal.Width    -0.405     0.95   -0.520   -0.287  1    
#>  6 rowid-1                  -0.662     0.95   -1.39     0.0417 0.962
#>  7 rowid-2                  -0.775     0.95   -1.45    -0.101  0.986
#>  8 rowid-3                  -0.810     0.95   -1.49    -0.0564 0.986
#>  9 rowid-4                  -0.791     0.95   -1.47    -0.0461 0.985
#> 10 rowid-5                  -0.655     0.95   -1.38     0.0499 0.966
#>    rope.percentage prior.distribution prior.location prior.scale effect
#>              <dbl> <chr>                       <dbl>       <dbl> <chr> 
#>  1          0      cauchy                          0       0.707 fixed 
#>  2          0      cauchy                          0       0.707 fixed 
#>  3          0      cauchy                          0       0.707 fixed 
#>  4          0      cauchy                          0       0.707 fixed 
#>  5          0      cauchy                          0       0.707 fixed 
#>  6          0.0424 cauchy                          0       1     random
#>  7          0      cauchy                          0       1     random
#>  8          0      cauchy                          0       1     random
#>  9          0.0115 cauchy                          0       1     random
#> 10          0.0590 cauchy                          0       1     random
#>    component       bf10 method                             r2 std.dev
#>    <chr>          <dbl> <chr>                           <dbl>   <dbl>
#>  1 extra       1.58e182 Bayes factors for linear models 0.818 0.00862
#>  2 conditional 1.58e182 Bayes factors for linear models 0.818 0.00862
#>  3 conditional 1.58e182 Bayes factors for linear models 0.818 0.00862
#>  4 conditional 1.58e182 Bayes factors for linear models 0.818 0.00862
#>  5 conditional 1.58e182 Bayes factors for linear models 0.818 0.00862
#>  6 conditional 1.58e182 Bayes factors for linear models 0.818 0.00862
#>  7 conditional 1.58e182 Bayes factors for linear models 0.818 0.00862
#>  8 conditional 1.58e182 Bayes factors for linear models 0.818 0.00862
#>  9 conditional 1.58e182 Bayes factors for linear models 0.818 0.00862
#> 10 conditional 1.58e182 Bayes factors for linear models 0.818 0.00862
#>    r2.conf.low r2.conf.high r2.component
#>          <dbl>        <dbl> <chr>       
#>  1       0.800        0.833 conditional 
#>  2       0.800        0.833 conditional 
#>  3       0.800        0.833 conditional 
#>  4       0.800        0.833 conditional 
#>  5       0.800        0.833 conditional 
#>  6       0.800        0.833 conditional 
#>  7       0.800        0.833 conditional 
#>  8       0.800        0.833 conditional 
#>  9       0.800        0.833 conditional 
#> 10       0.800        0.833 conditional 
#> # ... with 148 more rows
…
